% This file was created by matlab2tikz.
%
%The latest updates can be retrieved from
%  http://www.mathworks.com/matlabcentral/fileexchange/22022-matlab2tikz-matlab2tikz
%where you can also make suggestions and rate matlab2tikz.
%
\definecolor{mycolor1}{rgb}{0.00000,0.44700,0.74100}%
%
\begin{tikzpicture}
\begin{axis}[%
width=4.521in,
height=3.566in,
at={(0.758in,0.481in)},
scale only axis,
xmin=0,
xmax=20,
xlabel style={font=\color{white!15!black}},
xlabel={t in seconds},
ymin=0,
ymax=2,
ylabel style={font=\color{white!15!black}},
ylabel={$\text{Local }\sigma\text{ in m/s}^\text{2}$},
axis background/.style={fill=white},
axis x line*=bottom,
axis y line*=left
]
\addplot [color=red, draw=none, mark=triangle, mark options={solid, rotate=180, red}, forget plot]
  table[row sep=crcr]{%
1.70499999999993	0.885124479517452\\
2.63299999999981	1.57622573785862\\
3.38500000000022	1.07539547077298\\
4.33899999999994	1.66284920021432\\
5.04700000000048	1.14211855882283\\
5.84399999999914	1.74092906311785\\
6.6299999999992	0.898070225136739\\
7.41200000000026	1.39183731625012\\
8.1919999999991	1.15400185589607\\
8.98699999999917	1.93903409303188\\
9.76599999999962	1.22943484880986\\
10.5609999999997	1.47454598451179\\
11.3760000000002	1.21745931170674\\
12.277	1.42632974623049\\
12.9369999999999	0.940421550503867\\
13.7980000000007	1.08307793686285\\
14.643	0.96178211549337\\
15.6319999999996	1.40778515090877\\
16.5889999999999	0.765251169607305\\
17.3850000000002	1.3389261374413\\
};
\addplot [color=mycolor1, forget plot]
  table[row sep=crcr]{%
0	0\\
0	0\\
0.152000000000044	0\\
0.153000000000247	0\\
0.164999999999054	0\\
0.171000000000276	0\\
0.183999999999287	0\\
0.191000000000713	0\\
0.201999999999316	0\\
0.212999999999738	0\\
0.221999999999753	0\\
0.233000000000175	0\\
0.240999999999985	0\\
0.251000000000204	0\\
0.264999999999418	0\\
0.27100000000064	0\\
0.284999999999854	0\\
0.290999999999258	0\\
0.300999999999476	0\\
0.315000000000509	0\\
0.320999999999913	0\\
0.332000000000335	0\\
0.342000000000553	0\\
0.351000000000568	0\\
0.362999999999374	0\\
0.369999999998981	0\\
0.381999999999607	0\\
0.389999999999418	0\\
0.40099999999984	0.0936424695288431\\
0.413000000000466	0.0912879727830474\\
0.418999999999869	0.0874087397563468\\
0.432999999999083	0.0865422107022139\\
0.441000000000713	0.0863170900813505\\
0.449000000000524	0.0864333437147977\\
0.461999999999534	0.0848431286178438\\
0.469999999999345	0.0826043192873635\\
0.481999999999971	0.082445229673526\\
0.488999999999578	0.0816743166788825\\
0.5	0.0793825587574892\\
0.51299999999901	0.0768405663165012\\
0.520000000000437	0.076863768969488\\
0.531999999999243	0.0835288796189118\\
0.539999999999054	0.0937610971329456\\
0.548999999999069	0.107183025533788\\
0.563000000000102	0.113052033643282\\
0.568999999999505	0.115264096525252\\
0.582000000000335	0.112359486454333\\
0.588999999999942	0.111829563641177\\
0.59900000000016	0.115542396069733\\
0.611999999999171	0.11706375598306\\
0.619999999998981	0.117560871093142\\
0.631999999999607	0.120444346197344\\
0.638999999999214	0.127140274850643\\
0.648999999999432	0.137910265108688\\
0.662000000000262	0.143114886776826\\
0.667999999999665	0.143164542213143\\
0.683999999999287	0.142768492863865\\
0.688000000000102	0.144317980283563\\
0.700999999999112	0.147421252994797\\
0.711999999999534	0.152407778324332\\
0.72400000000016	0.153758992488106\\
0.72899999999936	0.154184967505854\\
0.736999999999171	0.154187120604782\\
0.746999999999389	0.155064862870634\\
0.761000000000422	0.161971226754096\\
0.876000000000204	0.172333473919714\\
0.876000000000204	0.182944652689802\\
0.876000000000204	0.1928350809192\\
0.876000000000204	0.202553291740909\\
0.876000000000204	0.208575368757422\\
0.877000000000407	0.210170802269547\\
0.877000000000407	0.206900928009067\\
0.877000000000407	0.200284897439216\\
0.877000000000407	0.196992859508983\\
0.877000000000407	0.19645928694741\\
0.877000000000407	0.200462852426343\\
0.878000000000611	0.204254616556636\\
0.88799999999901	0.207687514895315\\
0.897999999999229	0.213129160468691\\
0.909999999999854	0.218771101881575\\
0.916999999999462	0.225371778651757\\
0.927999999999884	0.229030775395432\\
0.936999999999898	0.229567710756858\\
0.94800000000032	0.228262448225024\\
0.996999999999389	0.228446338642756\\
0.996999999999389	0.228287112335006\\
0.996999999999389	0.226871981163978\\
0.996999999999389	0.224580365330784\\
0.996999999999389	0.223120660562523\\
1.01000000000022	0.223902489403667\\
1.01599999999962	0.225711434499079\\
1.02800000000025	0.227934462746533\\
1.03700000000026	0.227008907304914\\
1.04700000000048	0.222117421028133\\
1.06099999999969	0.213054639613513\\
1.0669999999991	0.202438837019412\\
1.07799999999952	0.193058148500506\\
1.08599999999933	0.182755407922098\\
1.09799999999996	0.176263730580631\\
1.11100000000079	0.175710009780147\\
1.11599999999999	0.181727271602909\\
1.1309999999994	0.186634567290622\\
1.13700000000063	0.187389383456272\\
1.14500000000044	0.185799070315585\\
1.15899999999965	0.181658625473756\\
1.16499999999905	0.176936461102499\\
1.17900000000009	0.170601550933251\\
1.18499999999949	0.163086244237534\\
1.20099999999911	0.155065550350108\\
1.22400000000016	0.145617052280519\\
1.22500000000036	0.136579259571045\\
1.23999999999978	0.124753913124463\\
1.24499999999898	0.121727690379121\\
1.25799999999981	0.121610129270793\\
1.26499999999942	0.122926027579903\\
1.27499999999964	0.12428793417017\\
1.28900000000067	0.125491404950235\\
1.29500000000007	0.12694690195479\\
1.3070000000007	0.12925716807522\\
1.3179999999993	0.131082205344339\\
1.32599999999911	0.132932921604956\\
1.33899999999994	0.139355813804036\\
1.34499999999935	0.147173635434015\\
1.35699999999997	0.155422828203621\\
1.36499999999978	0.165688782644444\\
1.375	0.182505191439002\\
1.38799999999901	0.200728075122549\\
1.39500000000044	0.215562078075768\\
1.40699999999924	0.22005110566088\\
1.41499999999905	0.214170015013401\\
1.42499999999927	0.235352000435081\\
1.4369999999999	0.330324209603856\\
1.44499999999971	0.44412610158849\\
1.45600000000013	0.519880038765721\\
1.46399999999994	0.550351685433472\\
1.47700000000077	0.566837586947923\\
1.48799999999937	0.586304126121576\\
1.49499999999898	0.616870827385274\\
1.50699999999961	0.641383044317068\\
1.51399999999921	0.641826792176136\\
1.52599999999984	0.642745075878565\\
1.53600000000006	0.643843557635282\\
1.54500000000007	0.652265742516688\\
1.55600000000049	0.667726184983426\\
1.56400000000031	0.690678694083315\\
1.57400000000052	0.722553295354565\\
1.58699999999953	0.757367041942968\\
1.59399999999914	0.785831123782152\\
1.60699999999997	0.811059834754321\\
1.61399999999958	0.830174140584363\\
1.6260000000002	0.842241930552705\\
1.63600000000042	0.846196966584566\\
1.64400000000023	0.844875637733763\\
1.65599999999904	0.845609194069426\\
1.66400000000067	0.853604766040786\\
1.68399999999929	0.864144978097742\\
1.6869999999999	0.87447766243056\\
1.6919999999991	0.88130137448687\\
1.70499999999993	0.885124479517452\\
1.71199999999953	0.879749595267412\\
1.72299999999996	0.849723855176623\\
1.73500000000058	0.79838649626569\\
1.74300000000039	0.755626128733614\\
1.753999999999	0.742924965046877\\
1.76200000000063	0.734676389541951\\
1.77199999999903	0.719885605200599\\
1.78600000000006	0.693778172792685\\
1.79199999999946	0.670583090317079\\
1.80600000000049	0.670012009085071\\
1.8130000000001	0.672007696715471\\
1.82400000000052	0.676131469760292\\
1.83599999999933	0.675430589916882\\
1.84399999999914	0.668812586631743\\
1.85599999999977	0.652005937130754\\
1.86499999999978	0.622156832091188\\
1.87199999999939	0.584702357227041\\
1.88500000000022	0.549621616741651\\
1.89199999999983	0.514814811350277\\
1.91899999999987	0.484300501662712\\
1.92100000000028	0.462674330738893\\
1.92200000000048	0.453345437824264\\
2.06400000000031	0.453075253547089\\
2.06400000000031	0.448402225594901\\
2.06400000000031	0.427430540185037\\
2.06400000000031	0.399435509570017\\
2.06400000000031	0.370209848751064\\
2.06400000000031	0.355620959012762\\
2.06400000000031	0.359603761985366\\
2.06500000000051	0.373383029379961\\
2.06500000000051	0.386114986335581\\
2.06500000000051	0.398345209232672\\
2.06500000000051	0.405171353268106\\
2.06500000000051	0.400349206597483\\
2.06500000000051	0.398409385569493\\
2.06500000000051	0.397157279768939\\
2.07200000000012	0.39770515807389\\
2.08400000000074	0.398408601941775\\
2.09200000000055	0.39835620109819\\
2.10299999999916	0.395585440671832\\
2.11100000000079	0.390545308809978\\
2.12299999999959	0.386315643883872\\
2.13500000000022	0.385211433643925\\
2.14199999999983	0.393862648232274\\
2.15300000000025	0.405511915233065\\
2.16100000000006	0.416020092904423\\
2.17100000000028	0.425912752491011\\
2.22600000000057	0.431937591653389\\
2.22600000000057	0.434902520672153\\
2.22600000000057	0.434693100615958\\
2.22600000000057	0.434331543354915\\
2.22600000000057	0.434681222542234\\
2.23500000000058	0.434975357523309\\
2.24099999999999	0.43366746867125\\
2.25300000000061	0.431770435955591\\
2.26100000000042	0.43093926773539\\
2.27000000000044	0.426850111417392\\
2.28399999999965	0.417322234856637\\
2.28999999999905	0.406969615560491\\
2.30400000000009	0.400845853940861\\
2.31099999999969	0.386261810322564\\
2.32099999999991	0.372228950974078\\
2.33499999999913	0.359420844540352\\
2.34100000000035	0.376931570145071\\
2.35299999999916	0.448408122375377\\
2.36100000000079	0.521141279829479\\
2.36999999999898	0.590161803864872\\
2.38199999999961	0.693609607906971\\
2.38999999999942	0.830461904661027\\
2.40400000000045	0.969638982293611\\
2.40999999999985	1.0494717784234\\
2.42000000000007	1.07273218530763\\
2.43399999999929	1.06818327494968\\
2.4419999999991	1.06138418752982\\
2.45199999999932	1.0649224179131\\
2.46199999999953	1.08559176967942\\
2.46999999999935	1.12823253725828\\
2.48400000000038	1.19524004775009\\
2.48999999999978	1.27977041328742\\
2.5010000000002	1.35991176897362\\
2.51000000000022	1.42502818097198\\
2.52000000000044	1.46308768148119\\
2.53199999999924	1.47977956712348\\
2.53999999999905	1.48463726436416\\
2.55299999999988	1.48472003789965\\
2.55999999999949	1.48526949736157\\
2.56899999999951	1.49217156387865\\
2.58300000000054	1.50769973356729\\
2.58899999999994	1.5269895647287\\
2.60299999999916	1.54573529582293\\
2.60900000000038	1.55862833600717\\
2.61999999999898	1.57147799544336\\
2.63299999999981	1.57622573785862\\
2.63999999999942	1.56391777189886\\
2.65099999999984	1.54368534261393\\
2.65999999999985	1.51933039696402\\
2.66899999999987	1.47529276843895\\
2.68399999999929	1.40241655799327\\
2.68900000000031	1.30885533947629\\
2.70299999999952	1.24365626824214\\
2.70800000000054	1.22098616986253\\
2.71899999999914	1.22133372680665\\
2.73099999999977	1.22259787329066\\
2.73899999999958	1.21405483307646\\
2.7510000000002	1.19057651322576\\
2.75900000000001	1.14780658138085\\
2.76800000000003	1.07980301803688\\
2.78199999999924	0.983826483894406\\
2.78800000000047	0.875469411482399\\
2.79999999999927	0.770285649901297\\
2.80799999999908	0.698305656760739\\
2.8179999999993	0.664322284280999\\
2.83200000000033	0.656147207490527\\
2.83799999999974	0.6584904914861\\
2.85000000000036	0.659928885505092\\
2.85900000000038	0.645865831710181\\
2.86800000000039	0.608620165624777\\
2.8809999999994	0.556148711026436\\
2.88799999999901	0.504459651941147\\
2.90099999999984	0.465484605563508\\
2.90799999999945	0.419649466903945\\
2.91899999999987	0.380209601582674\\
2.93100000000049	0.356035322100921\\
2.9369999999999	0.351815518408062\\
2.94900000000052	0.356225450201511\\
2.95800000000054	0.366556444796483\\
2.96700000000055	0.382228386135392\\
2.98099999999977	0.396560993239167\\
2.98699999999917	0.405174594068394\\
3	0.406362209723837\\
3.00699999999961	0.40351408529712\\
3.01699999999983	0.399471118235691\\
3.03099999999904	0.396110640127814\\
3.03600000000006	0.393711127524197\\
3.04899999999907	0.388680878078802\\
3.05799999999908	0.377944878941667\\
3.0669999999991	0.36477394206247\\
3.08300000000054	0.357554274285048\\
3.08499999999913	0.35513743872085\\
3.10299999999916	0.363695874618482\\
3.10499999999956	0.375992771426245\\
3.11599999999999	0.395628281174594\\
3.13600000000042	0.41625269958521\\
3.13700000000063	0.435268179795188\\
3.14799999999923	0.452625391501665\\
3.25799999999981	0.457306630858175\\
3.25799999999981	0.460375589861024\\
3.25900000000001	0.460659246587145\\
3.25900000000001	0.491197244373001\\
3.25900000000001	0.549531930484495\\
3.25900000000001	0.60797379490874\\
3.25900000000001	0.662694688888314\\
3.25900000000001	0.726698106664446\\
3.25900000000001	0.796799193715386\\
3.25900000000001	0.851077550769613\\
3.25900000000001	0.880735246584867\\
3.26399999999921	0.888991534167482\\
3.27800000000025	0.887165604925704\\
3.28399999999965	0.884139385410147\\
3.29600000000028	0.884749684333603\\
3.30600000000049	0.895494304340536\\
3.31500000000051	0.920496227174996\\
3.32699999999932	0.955466502269449\\
3.33799999999974	0.992955608378441\\
3.34699999999975	1.02464658064811\\
3.35499999999956	1.04924179252854\\
3.36399999999958	1.06755146061891\\
3.37800000000061	1.07523643052115\\
3.38500000000022	1.07539547077298\\
3.39799999999923	1.07097941124023\\
3.40400000000045	1.06399540310347\\
3.41499999999905	1.05644278925689\\
3.42699999999968	1.05208453366082\\
3.43599999999969	1.04890342396612\\
3.44599999999991	1.0501887528068\\
3.45600000000013	1.05085490098269\\
3.46500000000015	1.05434694874846\\
3.47899999999936	1.04311210267766\\
3.48500000000058	1.01768900735754\\
3.49699999999939	0.986648888222846\\
3.503999999999	0.951408668784693\\
3.51499999999942	0.901995568528665\\
3.52700000000004	0.838098208671516\\
3.53600000000006	0.777878617293949\\
3.54600000000028	0.736062026686353\\
3.55600000000049	0.718330744485369\\
3.56500000000051	0.714982689194106\\
3.57799999999952	0.716062639338819\\
3.58400000000074	0.714262172186285\\
3.59699999999975	0.701727432538665\\
3.60499999999956	0.6724946984711\\
3.61399999999958	0.627695029234289\\
3.62800000000061	0.575985091917127\\
3.63400000000001	0.528466479325973\\
3.64600000000064	0.486534552783754\\
3.65500000000065	0.441464583236615\\
3.66400000000067	0.41603187055828\\
3.67699999999968	0.40229772903413\\
3.68399999999929	0.400580727425506\\
3.69700000000012	0.398426906165948\\
3.70399999999972	0.392191350349743\\
3.71399999999994	0.377335522497691\\
3.72700000000077	0.363834028624714\\
3.73400000000038	0.358572396943447\\
3.74499999999898	0.354313307807507\\
3.753999999999	0.339330959825953\\
3.76299999999901	0.325773638926087\\
3.77599999999984	0.31483658736948\\
3.78399999999965	0.306178719335051\\
3.79600000000028	0.300292946247539\\
3.80299999999988	0.296663646567703\\
3.81400000000031	0.298104547762317\\
3.82599999999911	0.303900418656518\\
3.83400000000074	0.312318150123695\\
3.84499999999935	0.317781968078212\\
3.85399999999936	0.321304507620669\\
3.86299999999937	0.326771857135837\\
3.8760000000002	0.334784559308054\\
3.88299999999981	0.344948653050506\\
3.89699999999903	0.348768266702179\\
3.90099999999984	0.344653641736815\\
3.91200000000026	0.335253747109547\\
3.92399999999907	0.324675451895709\\
3.9320000000007	0.319830823435494\\
3.9429999999993	0.336013090472847\\
3.95099999999911	0.348013022076217\\
3.96099999999933	0.357700140715283\\
3.97600000000057	0.357964550522531\\
3.98199999999997	0.356599698551831\\
3.99499999999898	0.386834803686721\\
4.00200000000041	0.481293490019976\\
4.01299999999901	0.598558001650909\\
4.02499999999964	0.735459251285441\\
4.03299999999945	0.887611156451346\\
4.04500000000007	1.02419542349716\\
4.05199999999968	1.11747080487426\\
4.0619999999999	1.17070954492866\\
4.07599999999911	1.1930430916696\\
4.08200000000033	1.19875517673247\\
4.09399999999914	1.19862294030042\\
4.10200000000077	1.20537675409679\\
4.11299999999937	1.23053326065263\\
4.1239999999998	1.28597916286255\\
4.13299999999981	1.36823184892738\\
4.14199999999983	1.46146045957854\\
4.15200000000004	1.53129147534375\\
4.16100000000006	1.57499472294872\\
4.18499999999949	1.59481754673679\\
4.18599999999969	1.59914433876637\\
4.1919999999991	1.59875600054347\\
4.20399999999972	1.59736722226521\\
4.20999999999913	1.598148757768\\
4.22099999999955	1.60346319406599\\
4.23199999999997	1.61502609467659\\
4.33899999999994	1.63213060729625\\
4.33899999999994	1.6440082476084\\
4.33899999999994	1.65733060933039\\
4.33899999999994	1.66284920021432\\
4.33899999999994	1.6596320121657\\
4.33899999999994	1.63613263047743\\
4.33899999999994	1.59636142377195\\
4.33899999999994	1.53648426757733\\
4.33899999999994	1.45405480648521\\
4.34000000000015	1.36494042242294\\
4.34000000000015	1.29429237916199\\
4.35100000000057	1.2497117171226\\
4.36199999999917	1.23064467604288\\
4.3739999999998	1.22762538726329\\
4.38199999999961	1.23080381573626\\
4.39199999999983	1.22617259846399\\
4.40099999999984	1.20068112456472\\
4.41100000000006	1.13926199932405\\
4.42100000000028	1.03741742373829\\
4.43000000000029	0.899883604880736\\
4.44100000000071	0.772031602403148\\
4.46399999999994	0.672388228839336\\
4.46399999999994	0.615920658684177\\
4.47099999999955	0.598531340201981\\
4.47799999999916	0.595969315400449\\
4.49099999999999	0.595966655097027\\
4.49799999999959	0.589384047099529\\
4.50799999999981	0.567825310085816\\
4.52100000000064	0.522240292506215\\
4.53000000000065	0.455743038775365\\
4.54299999999967	0.402670931172634\\
4.54999999999927	0.341797249052228\\
4.55899999999929	0.311548766196278\\
4.57200000000012	0.291446071363056\\
4.57899999999972	0.282731410176509\\
4.59200000000055	0.281996223490936\\
4.59900000000016	0.281190294400383\\
4.60900000000038	0.275333709415245\\
4.62099999999919	0.262493864021385\\
4.628999999999	0.24878138119125\\
4.63999999999942	0.237677833016371\\
4.64899999999943	0.229701379599375\\
4.65799999999945	0.222048003490707\\
4.67100000000028	0.211340822626759\\
4.67799999999988	0.198264858986585\\
4.6919999999991	0.191321425401276\\
4.69800000000032	0.193228595216882\\
4.70800000000054	0.202230796214226\\
4.71999999999935	0.211271641119998\\
4.72899999999936	0.216282042691338\\
4.74200000000019	0.217533306948857\\
4.7489999999998	0.215953479563602\\
4.75799999999981	0.220861606084233\\
4.77199999999903	0.267577231800221\\
4.77800000000025	0.369184578886937\\
4.79099999999926	0.49365369679064\\
4.79899999999907	0.636307544990273\\
4.80999999999949	0.748177116429097\\
4.81999999999971	0.814819443472607\\
4.82799999999952	0.848750157098506\\
4.84100000000035	0.861340309208721\\
4.84799999999996	0.864670301554641\\
4.85699999999997	0.864722423788591\\
4.87199999999939	0.865688134397412\\
4.87800000000061	0.873855161169278\\
4.89099999999962	0.892904233655735\\
4.89699999999903	0.919264140729535\\
4.90899999999965	0.954596155184512\\
4.92100000000028	0.995649971439985\\
4.92799999999988	1.03665729804118\\
4.9380000000001	1.07150375442001\\
4.94800000000032	1.0930782182256\\
4.95800000000054	1.10197704588908\\
4.97099999999955	1.10363250955127\\
4.97700000000077	1.10301127024431\\
4.98999999999978	1.1028643193066\\
4.99699999999939	1.10441104679685\\
5.00699999999961	1.10873025039404\\
5.01800000000003	1.11651265855941\\
5.02700000000004	1.12606765296384\\
5.03900000000067	1.13551770626359\\
5.04700000000048	1.14211855882283\\
5.0570000000007	1.13974196898164\\
5.06899999999951	1.11867016436235\\
5.07699999999932	1.07442107088404\\
5.08899999999994	0.997299143410055\\
5.09499999999935	0.916446258930386\\
5.10699999999997	0.857622620971744\\
5.1190000000006	0.82392992524092\\
5.12700000000041	0.810843309124706\\
5.13899999999921	0.80825434684267\\
5.14600000000064	0.81043019712352\\
5.15599999999904	0.813727867860259\\
5.16899999999987	0.809652632721538\\
5.17599999999948	0.792455144245043\\
5.1880000000001	0.764791833768984\\
5.19599999999991	0.72002409386228\\
5.20600000000013	0.660165241956129\\
5.21800000000076	0.590857543386779\\
5.22600000000057	0.522873790203744\\
5.23899999999958	0.472945957884069\\
5.24599999999919	0.448125417345473\\
5.2559999999994	0.441993791963097\\
5.26900000000023	0.443403949021864\\
5.27599999999984	0.443803524813806\\
5.28800000000047	0.438091616806918\\
5.29600000000028	0.424241157401203\\
5.30799999999908	0.400329136445246\\
5.31899999999951	0.371448875561602\\
5.32999999999993	0.34149637049695\\
5.33699999999953	0.314261305594384\\
5.34399999999914	0.295764292927348\\
5.35399999999936	0.282914741508654\\
5.36999999999898	0.282768371215572\\
5.37700000000041	0.290310169946899\\
5.38999999999942	0.292888001066334\\
5.52800000000025	0.293529395863168\\
5.52800000000025	0.294403764015866\\
5.52900000000045	0.296394043360252\\
5.52900000000045	0.298109684322376\\
5.52900000000045	0.300381874362755\\
5.52900000000045	0.296840741846428\\
5.52900000000045	0.290722720999938\\
5.52900000000045	0.286901417422496\\
5.52900000000045	0.286586961622315\\
5.52900000000045	0.293616048496386\\
5.52900000000045	0.305529261155004\\
5.52900000000045	0.320587584362708\\
5.52900000000045	0.333945859406551\\
5.52900000000045	0.3402607159488\\
5.53600000000006	0.341003135663763\\
5.54500000000007	0.343501444738995\\
5.55400000000009	0.371260635810923\\
5.5669999999991	0.454601789702158\\
5.57200000000012	0.588792602769413\\
5.58599999999933	0.738792889164969\\
5.59300000000076	0.917897648050156\\
5.60599999999977	1.07324940473143\\
5.61499999999978	1.19730115389113\\
5.6239999999998	1.28461817549737\\
5.63500000000022	1.30269353782277\\
5.64300000000003	1.3041096595073\\
5.65400000000045	1.30040079978324\\
5.66799999999967	1.3017658147076\\
5.67399999999907	1.31892800416441\\
5.68599999999969	1.3607111323812\\
5.69499999999971	1.41988240377992\\
5.70499999999993	1.48832255367275\\
5.71600000000035	1.55422985062587\\
5.72500000000036	1.60804271052125\\
5.73600000000079	1.64411375231775\\
5.7440000000006	1.66778796612825\\
5.753999999999	1.68123972800495\\
5.76800000000003	1.68712795482951\\
5.77299999999923	1.68629471226852\\
5.78499999999985	1.68345376170875\\
5.79299999999967	1.68221947636321\\
5.80500000000029	1.68663140240019\\
5.81600000000071	1.70045939946221\\
5.82500000000073	1.71806080094012\\
5.83499999999913	1.73443229077895\\
5.84399999999914	1.74092906311785\\
5.85200000000077	1.72819024963181\\
5.86599999999999	1.69119936035147\\
5.87299999999959	1.63345941868455\\
5.88600000000042	1.54112099223521\\
5.89300000000003	1.43718416793335\\
5.90400000000045	1.3356336895199\\
5.91699999999946	1.25411362354818\\
5.92300000000068	1.23560298405671\\
5.9380000000001	1.23424301562264\\
5.9429999999993	1.23898959469485\\
5.95199999999932	1.23943070730918\\
5.96600000000035	1.22446575389227\\
5.97199999999975	1.18210848974699\\
5.98500000000058	1.11396597042975\\
5.99200000000019	1.02224865612894\\
6.00300000000061	0.918708159669981\\
6.01499999999942	0.818144323066657\\
6.02299999999923	0.73984262756431\\
6.03499999999985	0.681749959504693\\
6.04199999999946	0.64409322108019\\
6.05199999999968	0.6228296929787\\
6.06500000000051	0.618303473526428\\
6.07300000000032	0.618278456032992\\
6.08499999999913	0.613499764021087\\
6.09200000000055	0.59362372406699\\
6.10200000000077	0.54952504935756\\
6.11499999999978	0.491807140877381\\
6.12199999999939	0.429237797535869\\
6.13299999999981	0.375749620147347\\
6.14199999999983	0.339070909752108\\
6.15099999999984	0.315671341556459\\
6.16400000000067	0.301804110017637\\
6.17000000000007	0.295538978918999\\
6.18499999999949	0.295681249153133\\
6.19100000000071	0.295869632475012\\
6.20199999999932	0.285984498278596\\
6.21500000000015	0.275027993074123\\
6.22199999999975	0.260131175774568\\
6.23400000000038	0.240603381099857\\
6.24099999999999	0.222010934504501\\
6.2510000000002	0.200707787649137\\
6.26399999999921	0.174949172705601\\
6.27100000000064	0.152847710872939\\
6.28499999999985	0.14519731002588\\
6.29099999999926	0.152811123720258\\
6.30099999999948	0.162383617011516\\
6.3130000000001	0.163897536086886\\
6.32099999999991	0.164108075614206\\
6.33200000000033	0.165960265476213\\
6.34100000000035	0.192013207271104\\
6.35100000000057	0.270943738632486\\
6.36399999999958	0.367938431666691\\
6.36999999999898	0.449959744011253\\
6.38400000000001	0.51457505572192\\
6.38999999999942	0.563500318948014\\
6.40099999999984	0.598378740281129\\
6.41200000000026	0.619565379332119\\
6.42100000000028	0.630904291095988\\
6.4320000000007	0.636572896971691\\
6.44000000000051	0.636469626251545\\
6.44800000000032	0.637643858470103\\
6.46600000000035	0.645342112935801\\
6.47400000000016	0.663887745525764\\
6.47999999999956	0.693878464315717\\
6.48899999999958	0.732600701216597\\
6.60699999999997	0.772234611542047\\
6.60699999999997	0.80821171293552\\
6.60699999999997	0.836676695021618\\
6.60699999999997	0.852445927345508\\
6.60699999999997	0.859087887349806\\
6.60699999999997	0.860133589120269\\
6.60699999999997	0.859907603720802\\
6.60699999999997	0.859509869899113\\
6.60699999999997	0.860211472342379\\
6.60699999999997	0.864660986476135\\
6.60699999999997	0.874269634903165\\
6.60900000000038	0.886212436795523\\
6.62099999999919	0.895366921198217\\
6.6299999999992	0.898070225136739\\
6.64099999999962	0.882050554133466\\
6.64899999999943	0.848829897948409\\
6.66300000000047	0.809362453765422\\
6.66799999999967	0.770250124473051\\
6.68100000000049	0.734863717849177\\
6.71099999999933	0.706357919267797\\
6.71099999999933	0.687356838849632\\
6.71199999999953	0.677064635597173\\
6.72099999999955	0.672358413521198\\
6.72999999999956	0.672380929530247\\
6.73899999999958	0.671570908198305\\
6.74799999999959	0.665689754977397\\
6.76100000000042	0.65279258490997\\
6.76800000000003	0.628668436048557\\
6.78099999999904	0.592216813885397\\
6.78800000000047	0.545807531698741\\
6.79899999999907	0.496473015174483\\
6.81099999999969	0.449499187783648\\
6.81899999999951	0.419926743174501\\
6.82999999999993	0.407503225826561\\
6.83799999999974	0.404625810640926\\
6.84799999999996	0.403416305855719\\
6.86199999999917	0.40197247062698\\
6.86800000000039	0.395728855269911\\
6.8809999999994	0.382425089115548\\
6.88799999999901	0.3597111851997\\
6.89799999999923	0.329462809713306\\
6.91200000000026	0.30262623996143\\
6.91799999999967	0.278383677063025\\
6.93100000000049	0.265538233914404\\
6.9369999999999	0.261279460118948\\
6.94700000000012	0.263440664842188\\
6.95999999999913	0.272063974110571\\
6.96700000000055	0.283517200961336\\
6.97999999999956	0.291777228688819\\
6.98699999999917	0.291713038160238\\
6.99699999999939	0.290535067120348\\
7.01000000000022	0.288940627403878\\
7.01699999999983	0.289510353746989\\
7.02800000000025	0.291120806841098\\
7.03700000000026	0.292364704428527\\
7.04600000000028	0.286695273075726\\
7.06099999999969	0.27868124074055\\
7.0669999999991	0.276732409921782\\
7.07999999999993	0.28021677306558\\
7.08699999999953	0.274482172259318\\
7.09699999999975	0.265875185091366\\
7.10900000000038	0.263509436129028\\
7.11700000000019	0.28905480513199\\
7.12700000000041	0.350525785907185\\
7.13600000000042	0.437038873123791\\
7.14600000000064	0.533928345400013\\
7.15899999999965	0.641810143863211\\
7.16599999999926	0.758283155752461\\
7.17900000000009	0.856505971754121\\
7.18599999999969	0.920105509021008\\
7.19700000000012	0.951025993095666\\
7.20999999999913	0.962902042897578\\
7.21500000000015	0.965008342187913\\
7.22799999999916	0.963941731474533\\
7.23699999999917	0.989232938183905\\
7.24499999999898	1.01240734349288\\
7.25799999999981	1.0653863263891\\
7.26499999999942	1.13641454306451\\
7.27800000000025	1.21607284028621\\
7.28499999999985	1.27930161179698\\
7.29700000000048	1.31705870161986\\
7.30799999999908	1.33483531613891\\
7.31600000000071	1.33972582499599\\
7.32799999999952	1.33917334466593\\
7.33599999999933	1.33795882648457\\
7.34599999999955	1.33973492136348\\
7.35900000000038	1.34492012070231\\
7.36499999999978	1.35181145572014\\
7.37700000000041	1.36146362068016\\
7.38500000000022	1.37355546663584\\
7.39600000000064	1.38693063198339\\
7.41200000000026	1.39183731625012\\
7.41400000000067	1.38444239263316\\
7.42799999999988	1.36335637938792\\
7.43499999999949	1.32899307619859\\
7.44499999999971	1.28012444024486\\
7.45700000000033	1.21531130933887\\
7.46500000000015	1.15066358086887\\
7.47700000000077	1.10386717803235\\
7.48400000000038	1.08205042231507\\
7.49599999999919	1.07593720126522\\
7.50699999999961	1.07918632873311\\
7.51499999999942	1.08522514132574\\
7.52700000000004	1.06736951418007\\
7.53499999999985	1.04545002420878\\
7.54500000000007	0.988839281204194\\
7.55799999999908	0.903799522817415\\
7.56400000000031	0.793357347239445\\
7.57899999999972	0.686829764383761\\
7.58400000000074	0.611253999192732\\
7.59699999999975	0.57100161066846\\
7.60599999999977	0.558223140859551\\
7.61999999999898	0.557111172563019\\
7.6260000000002	0.556424658922741\\
7.63700000000063	0.547142062646836\\
7.76599999999962	0.52506180501719\\
7.76599999999962	0.497571500199666\\
7.76599999999962	0.466117765358606\\
7.76599999999962	0.429191500058105\\
7.76599999999962	0.382558260505593\\
7.76599999999962	0.34324478423751\\
7.76599999999962	0.315872462848786\\
7.76599999999962	0.301533316937686\\
7.76599999999962	0.299744310201145\\
7.76599999999962	0.299818060394661\\
7.76599999999962	0.29612894979017\\
7.76599999999962	0.289126437345826\\
7.76599999999962	0.283979252362067\\
7.77499999999964	0.273354581110107\\
7.78299999999945	0.258261299096665\\
7.79399999999987	0.240403585432306\\
7.80600000000049	0.21894081645452\\
7.82500000000073	0.196900484388925\\
7.82500000000073	0.199797374052703\\
7.83200000000033	0.209063766709948\\
7.84200000000055	0.213929107182885\\
7.85800000000017	0.222544635339812\\
7.86199999999917	0.231556562113568\\
7.875	0.235386314161461\\
7.88199999999961	0.235382289491571\\
7.89300000000003	0.241862711512224\\
7.90500000000065	0.271126481873715\\
7.91200000000026	0.34332307794042\\
7.92599999999948	0.429095010434978\\
7.93299999999908	0.518186200947818\\
7.9419999999991	0.609990748694794\\
7.95499999999993	0.695079872050389\\
7.96099999999933	0.757512128458901\\
7.97600000000057	0.792712876680005\\
7.98199999999997	0.808557894824918\\
7.99300000000039	0.813657676439656\\
8.0059999999994	0.813448246017619\\
8.01299999999901	0.814233404906843\\
8.02399999999943	0.824205452564488\\
8.03199999999924	0.846854938280074\\
8.04199999999946	0.879413129357278\\
8.05600000000049	0.924485054748994\\
8.0619999999999	0.974937071138714\\
8.07599999999911	1.02817901039118\\
8.08100000000013	1.06534290632089\\
8.09200000000055	1.0870443963678\\
8.10399999999936	1.0952542329449\\
8.11199999999917	1.09531635278706\\
8.1239999999998	1.09316766940147\\
8.1309999999994	1.0931634075509\\
8.14099999999962	1.09640923803163\\
8.15500000000065	1.10474557758222\\
8.16100000000006	1.11843664426202\\
8.17300000000068	1.1346490628731\\
8.18100000000049	1.14883577798609\\
8.1919999999991	1.15400185589607\\
8.20499999999993	1.14191869816427\\
8.21099999999933	1.11687096063267\\
8.22400000000016	1.08123987223854\\
8.23099999999977	1.03420202508828\\
8.24099999999999	0.980060161347663\\
8.253999999999	0.932476366856482\\
8.26100000000042	0.902642972337145\\
8.27399999999943	0.88851602885582\\
8.28099999999904	0.884231329836367\\
8.29099999999926	0.884854636080779\\
8.30500000000029	0.885887708238516\\
8.31099999999969	0.880255582677765\\
8.32500000000073	0.863402921256517\\
8.33100000000013	0.838158340516262\\
8.34000000000015	0.794165174078352\\
8.35399999999936	0.738203074323973\\
8.36000000000058	0.668647360905762\\
8.37299999999959	0.612731429675388\\
8.3799999999992	0.574919930282773\\
8.39099999999962	0.556529059652967\\
8.40500000000065	0.550430902534881\\
8.41100000000006	0.551473099401127\\
8.42399999999907	0.553038394071035\\
8.43000000000029	0.546226352673125\\
8.44000000000051	0.526671899539562\\
8.45299999999952	0.49615176650306\\
8.45999999999913	0.459053549735392\\
8.47199999999975	0.421148034163332\\
8.47999999999956	0.390466321451836\\
8.48999999999978	0.369523581670076\\
8.50300000000061	0.356289748261808\\
8.51000000000022	0.3504297798663\\
8.52100000000064	0.351574002463019\\
8.53199999999924	0.354372742557108\\
8.53900000000067	0.357830493587979\\
8.55299999999988	0.362245232953674\\
8.55899999999929	0.364328482942165\\
8.57300000000032	0.365634276468887\\
8.57899999999972	0.36886052765647\\
8.59000000000015	0.377712784317876\\
8.60200000000077	0.399220209749243\\
8.61000000000058	0.426555673531147\\
8.62099999999919	0.445594922173352\\
8.628999999999	0.449178307106559\\
8.63899999999921	0.449234648332268\\
8.65200000000004	0.450103221121135\\
8.65899999999965	0.444117488279422\\
8.67200000000048	0.438626789286113\\
8.67799999999988	0.448822812460269\\
8.68900000000031	0.490869199746144\\
8.70199999999932	0.576820904174813\\
8.70900000000074	0.701697955250727\\
8.72500000000036	0.864895843629374\\
8.74099999999999	1.04823423932516\\
8.74200000000019	1.21496691119945\\
8.75	1.34402646217327\\
8.75799999999981	1.41703847934526\\
8.8760000000002	1.44669102884083\\
8.8760000000002	1.4515001089668\\
8.8760000000002	1.45218253905077\\
8.8760000000002	1.46382569414139\\
8.8760000000002	1.49577182001732\\
8.8760000000002	1.56110145305245\\
8.8760000000002	1.62218362059471\\
8.8760000000002	1.69132925908237\\
8.8760000000002	1.75919633415334\\
8.8760000000002	1.82261903542064\\
8.8760000000002	1.87094351785925\\
8.8760000000002	1.88564720157922\\
8.88899999999921	1.89312332091367\\
8.89999999999964	1.88845394949529\\
8.90799999999945	1.881367139845\\
8.92000000000007	1.88470661283291\\
8.92799999999988	1.89601392268714\\
8.9369999999999	1.90860988724799\\
8.98699999999917	1.92089200225157\\
8.98699999999917	1.93156407288785\\
8.98699999999917	1.93903409303188\\
8.98699999999917	1.93880578299033\\
8.98699999999917	1.92249561596432\\
9	1.88379602255289\\
9.0059999999994	1.81482358455125\\
9.02000000000044	1.71499045742868\\
9.02700000000004	1.60163128278374\\
9.03600000000006	1.49652388682366\\
9.04999999999927	1.42978815260015\\
9.0570000000007	1.40325969268269\\
9.06899999999951	1.40231180808586\\
9.07500000000073	1.40546607437219\\
9.08699999999953	1.39609994790317\\
9.09799999999996	1.36318870428136\\
9.10800000000017	1.28986859230683\\
9.11999999999898	1.214852919488\\
9.12700000000041	1.11541828453547\\
9.13500000000022	1.00406842838413\\
9.14899999999943	0.88240933947496\\
9.15500000000065	0.772018547098\\
9.16899999999987	0.728174960033254\\
9.17699999999968	0.691993151456691\\
9.18499999999949	0.682555073648712\\
9.19900000000052	0.680002597509712\\
9.20499999999993	0.658644455769127\\
9.21899999999914	0.613794847789852\\
9.22500000000036	0.56362545692192\\
9.23600000000079	0.516521910397243\\
9.2489999999998	0.475157293829161\\
9.25699999999961	0.431034053971004\\
9.26699999999983	0.384227651706518\\
9.27499999999964	0.342543180212563\\
9.28600000000006	0.317903141899141\\
9.29800000000068	0.311585286017191\\
9.30600000000049	0.311551688948295\\
9.3179999999993	0.307786537216499\\
9.32500000000073	0.301059502838633\\
9.33499999999913	0.290837573050684\\
9.34799999999996	0.275947977668047\\
9.35399999999936	0.256260841525827\\
9.36700000000019	0.238355543554414\\
9.3760000000002	0.224917495900211\\
9.38500000000022	0.215938273409523\\
9.39799999999923	0.207555752182232\\
9.40500000000065	0.204535906852439\\
9.41699999999946	0.214671621583107\\
9.42499999999927	0.221491163683443\\
9.43399999999929	0.23025183315706\\
9.44800000000032	0.237158659371286\\
9.45499999999993	0.237762049904791\\
9.46700000000055	0.240713054030437\\
9.47400000000016	0.267300540022095\\
9.48699999999917	0.348760657114556\\
9.49599999999919	0.466153172852513\\
9.5059999999994	0.599008246998604\\
9.51599999999962	0.725688780296957\\
9.52499999999964	0.831292968667495\\
9.53399999999965	0.901220345210996\\
9.54899999999907	0.934295969966969\\
9.55400000000009	0.943851831116423\\
9.56600000000071	0.944440068612946\\
9.57400000000052	0.945086236410956\\
9.58599999999933	0.95057305458226\\
9.59599999999955	0.966461762387254\\
9.60499999999956	0.994268795134158\\
9.61599999999999	1.03018154931863\\
9.625	1.07209189094372\\
9.63400000000001	1.11371257795457\\
9.64799999999923	1.15098748419802\\
9.65400000000045	1.17861399684204\\
9.66599999999926	1.19319506285948\\
9.67399999999907	1.19627131023737\\
9.68399999999929	1.19755834169195\\
9.69599999999991	1.19489203765069\\
9.70399999999972	1.19299182582693\\
9.71500000000015	1.19395172240578\\
9.72400000000016	1.19950117665472\\
9.73300000000017	1.20650707693147\\
9.74799999999959	1.21505882870823\\
9.75300000000061	1.22439502237487\\
9.76599999999962	1.22943484880986\\
9.77299999999923	1.21670601488467\\
9.78399999999965	1.18053905165092\\
9.79500000000007	1.12190691833074\\
9.80400000000009	1.04632927069977\\
9.81600000000071	0.965528039850734\\
9.82300000000032	0.901045001239279\\
9.83300000000054	0.866747725990231\\
9.84499999999935	0.856062799882765\\
9.85299999999916	0.855256657821172\\
9.86599999999999	0.854771487512232\\
9.87199999999939	0.84971761533724\\
9.88899999999921	0.834226094018776\\
9.89400000000023	0.804743809190468\\
9.90200000000004	0.763246344385841\\
9.91400000000067	0.706144467901253\\
10.0329999999994	0.637489211651442\\
10.0329999999994	0.566240105326135\\
10.0329999999994	0.504286912609845\\
10.0329999999994	0.466019424534572\\
10.0329999999994	0.455247762874795\\
10.0329999999994	0.445265288665499\\
10.0329999999994	0.443675072300473\\
10.0329999999994	0.442982300579571\\
10.0329999999994	0.436335226955092\\
10.0329999999994	0.417382781478203\\
10.0329999999994	0.393234399691274\\
10.0329999999994	0.366685080187392\\
10.0450000000001	0.332665164083719\\
10.0519999999997	0.290436612224181\\
10.0759999999991	0.252082696716103\\
10.0759999999991	0.230764076006983\\
10.0820000000003	0.216611523416119\\
10.0939999999991	0.207552300726454\\
10.1010000000006	0.20252870258659\\
10.1149999999998	0.199527635547978\\
10.1209999999992	0.200037213815518\\
10.1309999999994	0.200039106205853\\
10.1440000000002	0.203888483246914\\
10.1509999999998	0.212460115677514\\
10.1630000000005	0.220925109569025\\
10.1710000000003	0.22805214951686\\
10.1810000000005	0.23038214703243\\
10.1939999999995	0.230914285456297\\
10.2019999999993	0.243677648587164\\
10.2129999999997	0.275975153408541\\
10.2209999999995	0.311129565292172\\
10.2309999999998	0.336790161665994\\
10.2440000000006	0.343867104053935\\
10.2510000000002	0.342186609591827\\
10.2649999999994	0.344633851137729\\
10.2700000000004	0.394325774337102\\
10.2839999999997	0.464762640930451\\
10.2929999999997	0.555875220800066\\
10.3009999999995	0.673689691315827\\
10.3169999999991	0.812120026594303\\
10.3199999999997	0.937528438240068\\
10.3299999999999	1.02144549272814\\
10.3439999999991	1.0698678945722\\
10.3500000000004	1.09658815786514\\
10.3629999999994	1.10827838243227\\
10.369999999999	1.10959558481502\\
10.3809999999994	1.11101151335829\\
10.393	1.12367421934317\\
10.3989999999994	1.15269020309746\\
10.4120000000003	1.19755299213253\\
10.4200000000001	1.25318005322069\\
10.4300000000003	1.31458388157949\\
10.4439999999995	1.37231480718936\\
10.4500000000007	1.41543727566086\\
10.4619999999995	1.43751061013587\\
10.4699999999993	1.44421180988233\\
10.4799999999996	1.44314351756023\\
10.4920000000002	1.43927290215084\\
10.4989999999998	1.43270894993097\\
10.5110000000004	1.42668052254324\\
10.5200000000004	1.42823716009397\\
10.5290000000005	1.43421320039567\\
10.5419999999995	1.45226970300323\\
10.5499999999993	1.47100862043078\\
10.5609999999997	1.47454598451179\\
10.5679999999993	1.46576924044284\\
10.5789999999997	1.44179531781054\\
10.5910000000003	1.39411726297275\\
10.5990000000002	1.31913934911261\\
10.6110000000008	1.2329061976349\\
10.6190000000006	1.16737500012816\\
10.6280000000006	1.12903591690989\\
10.6409999999996	1.11045371991966\\
10.6479999999992	1.1055318647093\\
10.6610000000001	1.10862908195142\\
10.6710000000003	1.11019576657934\\
10.6790000000001	1.10008846317749\\
10.6910000000007	1.07102416007368\\
10.6980000000003	1.02140260571429\\
10.7109999999993	0.952470203529125\\
10.7189999999991	0.864911954642811\\
10.7279999999992	0.767381184612642\\
10.741	0.680588429740423\\
10.7479999999996	0.626625601392958\\
10.7610000000004	0.604768920797901\\
10.768	0.599441813589399\\
10.7780000000002	0.598287413049702\\
10.7909999999993	0.598493775763939\\
10.7980000000007	0.595943216921751\\
10.8099999999995	0.578072944545687\\
10.8179999999993	0.5581798025551\\
10.8269999999993	0.508296028103988\\
10.8410000000003	0.449204457208842\\
10.848	0.393181222828547\\
10.8600000000006	0.346272542806777\\
10.8680000000004	0.310626124374569\\
10.8770000000004	0.293417671166257\\
10.8919999999998	0.289769773175018\\
10.8979999999992	0.291003112237149\\
10.9089999999997	0.278135666164356\\
10.9179999999997	0.252868022567565\\
10.9259999999995	0.218000912850809\\
10.9400000000005	0.181323525148188\\
10.9500000000007	0.151280659142191\\
10.9599999999991	0.127544206091247\\
10.9719999999998	0.10395476120234\\
10.9779999999992	0.0935536355499066\\
10.9879999999994	0.0874002012617713\\
11.1149999999998	0.0936987873963938\\
11.1149999999998	0.10956665164282\\
11.1149999999998	0.152357012691659\\
11.1149999999998	0.191857514898651\\
11.1149999999998	0.225615468137809\\
11.1149999999998	0.248306086178075\\
11.1149999999998	0.263653059525299\\
11.1149999999998	0.273903775012823\\
11.1149999999998	0.273859516799895\\
11.1149999999998	0.272991303369441\\
11.1149999999998	0.334936291354877\\
11.1149999999998	0.439002185873551\\
11.1149999999998	0.542887603181259\\
11.1260000000002	0.633647087502338\\
11.1370000000006	0.7144303514024\\
11.1460000000006	0.791729043376416\\
11.1579999999994	0.848851548575005\\
11.1659999999993	0.875765448861426\\
11.1759999999995	0.884771355365328\\
11.1890000000003	0.885682880777369\\
11.2289999999994	0.886040351735906\\
11.2289999999994	0.893244047209748\\
11.2289999999994	0.914490195413247\\
11.2289999999994	0.952311340626492\\
11.2399999999998	1.0037203219295\\
11.2459999999992	1.05104996645561\\
11.259	1.0928981035313\\
11.2649999999994	1.13104235368009\\
11.2749999999996	1.16135875566012\\
11.2880000000005	1.18129381700251\\
11.2960000000003	1.18967162338275\\
11.3079999999991	1.18594013122271\\
11.3160000000007	1.18369598123395\\
11.3250000000007	1.18174140612484\\
11.3400000000001	1.18370342893048\\
11.3449999999993	1.18776122368503\\
11.3559999999998	1.19338452065123\\
11.366	1.20482156568836\\
11.3760000000002	1.21745931170674\\
11.387999999999	1.21109601171574\\
11.3950000000004	1.1847363971495\\
11.405999999999	1.14709587142013\\
11.4159999999993	1.10486042470722\\
11.4249999999993	1.0577329940217\\
11.4359999999997	1.00322662203234\\
11.4449999999997	0.955715508450272\\
11.4580000000005	0.930874467748259\\
11.4639999999999	0.921816495941159\\
11.4750000000004	0.920677328227417\\
11.4869999999992	0.92170607145182\\
11.494999999999	0.918439592390392\\
11.5059999999994	0.900990433710452\\
11.5159999999996	0.86437488975646\\
11.5249999999996	0.807532907723006\\
11.5370000000003	0.746402519998588\\
11.5439999999999	0.684155608363205\\
11.5560000000005	0.619038972081199\\
11.5640000000003	0.560314988927274\\
11.5750000000007	0.51646389131378\\
11.5859999999993	0.494112280148193\\
11.5959999999995	0.491803585532783\\
11.6059999999998	0.483288031942484\\
11.6149999999998	0.473382845328166\\
11.6239999999998	0.456758122661124\\
11.6360000000004	0.437737469284072\\
11.6440000000002	0.41648560070629\\
11.6569999999992	0.382970171660668\\
11.6640000000007	0.340923600745631\\
11.6739999999991	0.306874140442572\\
11.6869999999999	0.276881370695719\\
11.6939999999995	0.250586179407385\\
11.7070000000003	0.227849434831508\\
11.7150000000001	0.212741388189985\\
11.723	0.202715512741064\\
11.7360000000008	0.201819924918924\\
11.7440000000006	0.201564907894336\\
11.7559999999994	0.202208114833933\\
11.762999999999	0.206216216114378\\
11.7739999999994	0.206477169128551\\
11.7849999999999	0.196398303389111\\
11.7939999999999	0.183693803464104\\
11.8050000000003	0.172478038158046\\
11.8130000000001	0.170394877072706\\
11.8230000000003	0.186114712284529\\
11.8359999999993	0.213637468355272\\
11.8430000000008	0.244301750227858\\
11.8559999999998	0.277752258129045\\
11.8629999999994	0.301313582135055\\
11.8729999999996	0.325499636542854\\
11.8850000000002	0.35061594253349\\
11.893	0.371331690870045\\
11.9040000000005	0.376509238001848\\
11.9130000000005	0.392898155743086\\
11.9220000000005	0.438985571879379\\
11.9359999999997	0.507260160815386\\
11.9419999999991	0.594763712325338\\
11.9560000000001	0.703223254076729\\
11.9619999999995	0.827842573414902\\
11.9719999999998	0.940856553492469\\
11.9840000000004	1.01685369027191\\
11.9920000000002	1.05250290471176\\
12.0049999999992	1.062391074721\\
12.0120000000006	1.06242949594308\\
12.021999999999	1.06700781516646\\
12.0360000000001	1.08765604340846\\
12.0409999999993	1.13324546292307\\
12.0540000000001	1.19438692208755\\
12.0619999999999	1.25992017435701\\
12.0720000000001	1.32086650126568\\
12.0859999999993	1.36519323383021\\
12.0930000000008	1.38894273213212\\
12.107	1.3954755633294\\
12.1119999999992	1.39407703877523\\
12.1209999999992	1.39231298397967\\
12.1360000000004	1.39838998527828\\
12.1389999999992	1.40997166356854\\
12.277	1.41982693401596\\
12.277	1.42067120766096\\
12.277	1.42129820670215\\
12.277	1.42235307593539\\
12.277	1.42632974623049\\
12.2780000000002	1.42515929387231\\
12.2780000000002	1.41235971462947\\
12.2780000000002	1.38900368416322\\
12.2780000000002	1.35376198932177\\
12.2780000000002	1.30151662021566\\
12.2780000000002	1.22812152894182\\
12.2780000000002	1.14774109191032\\
12.2780000000002	1.08571895763348\\
12.280999999999	1.0558643332214\\
12.2929999999997	1.04804064159445\\
12.3029999999999	1.04901705507569\\
12.3099999999995	1.04497121766182\\
12.3279999999995	1.02406905073466\\
12.3310000000001	0.973704217489639\\
12.3400000000001	0.896818340962398\\
12.3510000000006	0.800640823863519\\
12.3600000000006	0.69368898194774\\
12.369999999999	0.600157564256257\\
12.3829999999998	0.540771752241392\\
12.3899999999994	0.519350150099427\\
12.4009999999998	0.516070323751896\\
12.4099999999999	0.509114695778953\\
12.4189999999999	0.476749777096912\\
12.4349999999995	0.419923322950746\\
12.4390000000003	0.366822385334971\\
12.4509999999991	0.341559418499679\\
12.4599999999991	0.31280569019733\\
12.4699999999993	0.282740094240471\\
12.482	0.254575092503848\\
12.4899999999998	0.235680153244098\\
12.5020000000004	0.230833623400991\\
12.5100000000002	0.234684061629469\\
12.5190000000002	0.238069286329551\\
12.5339999999997	0.235334919845073\\
12.5390000000007	0.224434616623557\\
12.5519999999997	0.203736803517075\\
12.5599999999995	0.175729293631282\\
12.5689999999995	0.142343114255815\\
12.5820000000003	0.124708713118115\\
12.5879999999997	0.120341239096412\\
12.6010000000006	0.122100704046994\\
12.6090000000004	0.130653859255373\\
12.6180000000004	0.149263656763101\\
12.6319999999996	0.164179089812941\\
12.6389999999992	0.182388085107055\\
12.6530000000002	0.211848400540319\\
12.6579999999994	0.231843590302424\\
12.6700000000001	0.253946507940712\\
12.6810000000005	0.270978798260427\\
12.6880000000001	0.288493675677594\\
12.7000000000007	0.315848811782927\\
12.7090000000007	0.321742979276821\\
12.7180000000008	0.327659611267207\\
12.732	0.367645314711088\\
12.7379999999994	0.441368924011746\\
12.75	0.514998823573439\\
12.7579999999998	0.575449917958526\\
12.7669999999998	0.628684682555576\\
12.780999999999	0.682677630527097\\
12.7880000000005	0.727538088854968\\
12.8009999999995	0.758698362060701\\
12.8079999999991	0.776877308451692\\
12.8169999999991	0.784438238269551\\
12.8310000000001	0.786890170039322\\
12.8369999999995	0.787177713949214\\
12.8490000000002	0.788619254958533\\
12.857	0.799135195132697\\
12.8670000000002	0.820551937406665\\
12.8799999999992	0.846061073622446\\
12.887999999999	0.868380970443997\\
12.8989999999994	0.885659732350721\\
12.9069999999992	0.900255414467853\\
12.9169999999995	0.918399931938024\\
12.9300000000003	0.935031994257632\\
12.9369999999999	0.940421550503867\\
12.9500000000007	0.939125667912724\\
12.9570000000003	0.933922920781372\\
12.9670000000006	0.929599648120899\\
12.9789999999994	0.927089046154376\\
12.9869999999992	0.921640963494971\\
13.0010000000002	0.921527417595993\\
13.0069999999996	0.921972053979132\\
13.0169999999998	0.909740887039215\\
13.0300000000007	0.879199464799337\\
13.0370000000003	0.840220571829971\\
13.0480000000007	0.80133606284721\\
13.0550000000003	0.76156874573968\\
13.0660000000007	0.715073149581364\\
13.0779999999995	0.671270170496042\\
13.0849999999991	0.635416299069775\\
13.098	0.613291290800917\\
13.107	0.608226169168438\\
13.1149999999998	0.609530070868658\\
13.128999999999	0.611561935989152\\
13.1360000000004	0.610637278322683\\
13.1479999999992	0.597462004164156\\
13.155999999999	0.569917722084058\\
13.1659999999993	0.531163500719997\\
13.1800000000003	0.491796775530609\\
13.1869999999999	0.45634275414694\\
13.1970000000001	0.419586906471097\\
13.2049999999999	0.37178569777653\\
13.2160000000003	0.318116675116776\\
13.3649999999998	0.283253737836407\\
13.3649999999998	0.271669543771495\\
13.3649999999998	0.269822211257187\\
13.3649999999998	0.268332181510796\\
13.3649999999998	0.258557488343346\\
13.3649999999998	0.24555882591413\\
13.3649999999998	0.238189182052057\\
13.3649999999998	0.228853586664578\\
13.3649999999998	0.216365495391191\\
13.3649999999998	0.204072056453057\\
13.3649999999998	0.19565122386566\\
13.3649999999998	0.19283684270195\\
13.3649999999998	0.190108986252849\\
13.375	0.18522483915355\\
13.3860000000004	0.177879716658282\\
13.3989999999994	0.174327240677042\\
13.405999999999	0.166926912942189\\
13.4159999999993	0.148261603314457\\
13.4249999999993	0.135533550060818\\
13.4339999999993	0.141467256894209\\
13.4480000000003	0.153135521557764\\
13.4850000000006	0.157369758374164\\
13.4850000000006	0.159213924385214\\
13.4850000000006	0.172346370736202\\
13.4850000000006	0.191121254825773\\
13.4969999999994	0.215066008270329\\
13.5030000000006	0.236087245464333\\
13.5139999999992	0.260436214235792\\
13.5239999999994	0.289927925876108\\
13.5339999999997	0.320286652225563\\
13.5470000000005	0.335447907137516\\
13.5529999999999	0.345647988858383\\
13.5640000000003	0.348575504696845\\
13.5740000000005	0.348632883550507\\
13.5849999999991	0.364415262552679\\
13.6000000000004	0.398100961793238\\
13.6029999999992	0.455278557035625\\
13.6139999999996	0.535788904493686\\
13.6239999999998	0.632024892574667\\
13.634	0.71004704998212\\
13.6479999999992	0.771339434329719\\
13.6540000000005	0.815078115100794\\
13.6640000000007	0.845546069390974\\
13.6739999999991	0.861156525089319\\
13.6839999999993	0.866234251783963\\
13.6990000000005	0.8662678372757\\
13.7029999999995	0.869855028343461\\
13.7129999999997	0.878240222224634\\
13.7240000000002	0.895038520984378\\
13.7330000000002	0.921413871995823\\
13.7459999999992	0.958795307497644\\
13.7530000000006	1.0003865425679\\
13.762999999999	1.03687245639991\\
13.7729999999992	1.06512718907919\\
13.7829999999994	1.07868893997217\\
13.7980000000007	1.08307793686285\\
13.8029999999999	1.07781749010879\\
13.8119999999999	1.07026526486387\\
13.8230000000003	1.06247254652395\\
13.8320000000003	1.06097171353837\\
13.8469999999998	1.06309233275191\\
13.8520000000008	1.06823811284943\\
13.8639999999996	1.07647376872623\\
13.8719999999994	1.08234892521837\\
13.8829999999998	1.08039403139894\\
13.8960000000006	1.06595956128038\\
13.9030000000002	1.03269244731275\\
13.9120000000003	0.980075065495836\\
13.9220000000005	0.92778570791641\\
13.9320000000007	0.877249410978224\\
13.9500000000007	0.836221731651928\\
13.9509999999991	0.805839288403192\\
13.9639999999999	0.790640453115202\\
13.9709999999995	0.787279235704649\\
13.982	0.789576612235708\\
13.9969999999994	0.788536901198077\\
14.0020000000004	0.779731945371774\\
14.0110000000004	0.759004281053783\\
14.0210000000006	0.724015302160711\\
14.030999999999	0.672421661190603\\
14.0470000000005	0.606558507962201\\
14.0509999999995	0.537025226130483\\
14.0619999999999	0.471296920876029\\
14.0709999999999	0.42804039497285\\
14.0840000000007	0.405404124392361\\
14.1020000000008	0.404459207932169\\
14.1039999999994	0.404530037352475\\
14.1110000000008	0.401560062795974\\
14.1219999999994	0.393220689919278\\
14.1309999999994	0.378632464924504\\
14.146999999999	0.360558206990771\\
14.1499999999996	0.334248973755957\\
14.1610000000001	0.296448147695386\\
14.1710000000003	0.258086814960213\\
14.1810000000005	0.221158521673848\\
14.1949999999997	0.196679192413993\\
14.2009999999991	0.179228265656955\\
14.2109999999993	0.164724667582236\\
14.2209999999995	0.1635986198574\\
14.2309999999998	0.165182040633697\\
14.2469999999994	0.162224377451967\\
14.25	0.15789463491582\\
14.2610000000004	0.151147149940708\\
14.2700000000004	0.140159035096879\\
14.280999999999	0.120136046914294\\
14.2950000000001	0.106812830099931\\
14.2999999999993	0.0955052721923944\\
14.3099999999995	0.0922645296917242\\
14.3209999999999	0.0908841465489907\\
14.3299999999999	0.0926323629247323\\
14.348	0.0986356515186126\\
14.3490000000002	0.120943183179162\\
14.3629999999994	0.145379267764971\\
14.369999999999	0.177991429889031\\
14.3909999999996	0.212146029059168\\
14.3979999999992	0.245330521842472\\
14.3989999999994	0.274856524823531\\
14.4089999999997	0.295556868179654\\
14.5319999999992	0.300260889331215\\
14.5319999999992	0.301974217539951\\
14.5319999999992	0.335300464148403\\
14.5319999999992	0.404298761774248\\
14.5319999999992	0.486503798761577\\
14.5319999999992	0.576242173008366\\
14.5319999999992	0.666605256386869\\
14.5319999999992	0.737119037556917\\
14.5319999999992	0.778158461462167\\
14.5319999999992	0.799279010287632\\
14.5319999999992	0.812347326378887\\
14.5319999999992	0.821357864047092\\
14.5429999999997	0.824362951504356\\
14.5489999999991	0.827801455912636\\
14.5589999999993	0.83165119831862\\
14.5779999999995	0.848313078518504\\
14.5799999999999	0.876279743972815\\
14.5920000000006	0.903964881417774\\
14.5969999999998	0.922554403601829\\
14.607	0.938490412265362\\
14.6190000000006	0.949909396714552\\
14.6280000000006	0.959282671009331\\
14.643	0.96178211549337\\
14.6479999999992	0.9604516495298\\
14.6589999999997	0.955201912790608\\
14.6689999999999	0.948103680040634\\
14.6800000000003	0.939843478098482\\
14.6939999999995	0.931657515991715\\
14.7000000000007	0.925602623750519\\
14.7080000000005	0.926146481505928\\
14.7180000000008	0.930771713433242\\
14.7279999999992	0.928711666087809\\
14.744999999999	0.910570625714847\\
14.7479999999996	0.877572962587393\\
14.7569999999996	0.828193891086841\\
14.768	0.762089794177333\\
14.7780000000002	0.698229738135871\\
14.7919999999995	0.654885141404886\\
14.7980000000007	0.6287313181361\\
14.8070000000007	0.611287058157124\\
14.8169999999991	0.599537253234543\\
14.8269999999993	0.595718150657654\\
14.8420000000006	0.591860750080289\\
14.8469999999998	0.597165128285042\\
14.8580000000002	0.583962625978986\\
14.8670000000002	0.559472556450454\\
14.8770000000004	0.533241465298651\\
14.8919999999998	0.518363463949108\\
14.896999999999	0.496588265497111\\
14.9069999999992	0.478885294129516\\
14.9169999999995	0.464280185754213\\
14.9269999999997	0.456734903413772\\
14.9449999999997	0.456228169394391\\
14.9459999999999	0.45722559862327\\
14.9570000000003	0.457154227937685\\
14.9650000000001	0.4574844015353\\
14.9760000000006	0.458498814210144\\
14.9920000000002	0.460284997872641\\
14.9969999999994	0.457884558315389\\
15.0069999999996	0.450538050682437\\
15.0169999999998	0.435377504356903\\
15.0259999999998	0.418891614161125\\
15.0419999999995	0.405777243092653\\
15.0450000000001	0.396210149480306\\
15.0560000000005	0.389033025761929\\
15.0660000000007	0.382045170833671\\
15.0769999999993	0.377399530615852\\
15.0910000000003	0.378283187671571\\
15.098	0.379268970399927\\
15.1049999999996	0.380111834159889\\
15.116	0.379485447867811\\
15.1260000000002	0.378788059052827\\
15.143	0.366032610571679\\
15.1440000000002	0.355736763741443\\
15.155999999999	0.336804822130782\\
15.1659999999993	0.313712920949765\\
15.1779999999999	0.292390400055898\\
15.1949999999997	0.283401487019109\\
15.1959999999999	0.27975294897637\\
15.2049999999999	0.274961716065051\\
15.2150000000001	0.276976029326026\\
15.2250000000004	0.283354508555403\\
15.2399999999998	0.295235360317521\\
15.2459999999992	0.307432328373594\\
15.2559999999994	0.312502341641688\\
15.2649999999994	0.310709843781142\\
15.2759999999998	0.309723466804667\\
15.2919999999995	0.33336789348852\\
15.2939999999999	0.383832502587193\\
15.3050000000003	0.448179227778809\\
15.3160000000007	0.52809757048257\\
15.3250000000007	0.632553292067565\\
15.3400000000001	0.757187585535218\\
15.3459999999995	0.863931695578995\\
15.3559999999998	0.964231889239498\\
15.3649999999998	1.02646495785888\\
15.375	1.05417927138616\\
15.3899999999994	1.061463594428\\
15.3950000000004	1.06428975646165\\
15.4050000000007	1.06685976327\\
15.4149999999991	1.08074151291515\\
15.4249999999993	1.11416682540351\\
15.4390000000003	1.16252095108023\\
15.4449999999997	1.22634639017541\\
15.4560000000001	1.28245702534076\\
15.4650000000001	1.3298027521453\\
15.4789999999994	1.36358558420526\\
15.4879999999994	1.38171368730739\\
15.4969999999994	1.39144407887015\\
15.6319999999996	1.39530377293847\\
15.6319999999996	1.39340310530398\\
15.6319999999996	1.39048188431052\\
15.6319999999996	1.39029679352642\\
15.6319999999996	1.39434246025682\\
15.6319999999996	1.40137054039023\\
15.6319999999996	1.40696167287994\\
15.6319999999996	1.40778515090877\\
15.6319999999996	1.40102235067388\\
15.6319999999996	1.38739817095633\\
15.6319999999996	1.36370994670687\\
15.6319999999996	1.32085412046197\\
15.6319999999996	1.25312353735665\\
15.6370000000006	1.18160231323137\\
15.643	1.10145001894568\\
15.6550000000007	1.0441684035303\\
15.6630000000005	1.01680482475368\\
15.6730000000007	1.00991005869072\\
15.6869999999999	1.00749755380426\\
15.6939999999995	1.00603520975678\\
15.7029999999995	0.991767036131693\\
15.7430000000004	0.953715252219892\\
15.7440000000006	0.893250832649875\\
15.7440000000006	0.802471240362091\\
15.7440000000006	0.709333938684757\\
15.7520000000004	0.615363647346749\\
15.762999999999	0.53652541625987\\
15.7739999999994	0.484996978306909\\
15.7870000000003	0.4536994726665\\
15.7929999999997	0.438574146547617\\
15.8029999999999	0.437280401450156\\
15.8130000000001	0.437813930703176\\
15.8230000000003	0.431667512455265\\
15.8379999999997	0.415578204128205\\
15.8420000000006	0.392579632385747\\
15.8529999999992	0.370444631197071\\
15.8610000000008	0.344807677850203\\
15.8729999999996	0.315759488455309\\
15.8870000000006	0.285438312207648\\
15.8919999999998	0.256289456663219\\
15.9009999999998	0.238105784319742\\
15.9130000000005	0.233391445022084\\
15.9220000000005	0.232685286383146\\
15.9369999999999	0.231371463275524\\
15.9419999999991	0.229634559418528\\
15.9539999999997	0.226007907551692\\
15.9619999999995	0.222544892114435\\
15.9719999999998	0.221595574378551\\
15.9860000000008	0.225604772392302\\
15.9920000000002	0.237818499955963\\
16.0010000000002	0.24908749480317\\
16.0120000000006	0.252329830118125\\
16.0210000000006	0.244216863611392\\
16.0370000000003	0.23247850689597\\
16.0399999999991	0.222409109245789\\
16.0519999999997	0.217686578661711\\
16.0609999999997	0.218678072544218\\
16.0709999999999	0.219928174688213\\
16.0879999999997	0.21914240371121\\
16.0920000000006	0.218496569052403\\
16.1010000000006	0.217152489053097\\
16.1119999999992	0.213622447552213\\
16.119999999999	0.210702217860977\\
16.1350000000002	0.207783954815821\\
16.1409999999996	0.209175159556328\\
16.1509999999998	0.209931463501956\\
16.1610000000001	0.216901151732646\\
16.1710000000003	0.225340906187684\\
16.1859999999997	0.234094127610666\\
16.1910000000007	0.237209187164873\\
16.2009999999991	0.242033917922728\\
16.2109999999993	0.245397516948205\\
16.2219999999998	0.245502232976059\\
16.2360000000008	0.251589887690451\\
16.2399999999998	0.256879977677275\\
16.2510000000002	0.26207524793416\\
16.2600000000002	0.277860839742265\\
16.2710000000006	0.317442982988178\\
16.2870000000003	0.351402721734056\\
16.2899999999991	0.37458722834179\\
16.2999999999993	0.401664945494262\\
16.3130000000001	0.444939775407923\\
16.3199999999997	0.494638870873113\\
16.3400000000001	0.524122885373561\\
16.3420000000006	0.533493003848373\\
16.3500000000004	0.533894418681429\\
16.3580000000002	0.53409918575821\\
16.369999999999	0.536792189855227\\
16.384	0.542825833720463\\
16.3899999999994	0.558695544564801\\
16.3989999999994	0.58054225584564\\
16.4099999999999	0.607718732204092\\
16.4189999999999	0.637136308695239\\
16.4349999999995	0.659510193169445\\
16.4390000000003	0.672720740429819\\
16.4500000000007	0.681467792890808\\
16.4590000000007	0.693064241170632\\
16.4699999999993	0.702749147270604\\
16.4850000000006	0.708782839381888\\
16.4899999999998	0.707661140931349\\
16.4989999999998	0.706860804447349\\
16.509	0.70684222816296\\
16.5190000000002	0.707450767873364\\
16.5349999999999	0.712986164020865\\
16.5380000000005	0.730403248877582\\
16.5499999999993	0.744919656533536\\
16.5589999999993	0.752442040225271\\
16.5689999999995	0.757942838964185\\
16.5830000000005	0.764855533003496\\
16.5889999999999	0.765251169607305\\
16.5990000000002	0.74817096999727\\
16.6090000000004	0.718806486797718\\
16.6209999999992	0.69759674254257\\
16.6360000000004	0.691831178041729\\
16.643	0.695497434596378\\
16.6479999999992	0.701755809104949\\
16.6589999999997	0.709151042814622\\
16.7710000000006	0.71249036441114\\
16.7710000000006	0.708001201053483\\
16.7710000000006	0.696824337552389\\
16.7710000000006	0.680081453836775\\
16.7710000000006	0.658693586697373\\
16.771999999999	0.640100096041261\\
16.771999999999	0.629135678739597\\
16.771999999999	0.618193134678212\\
16.771999999999	0.602535456424248\\
16.771999999999	0.588038940978207\\
16.771999999999	0.578856244403103\\
16.7819999999992	0.5777316786444\\
16.7890000000007	0.577308484728472\\
16.7970000000005	0.577368872217751\\
16.8079999999991	0.574125679078676\\
16.8169999999991	0.564950036511247\\
16.8310000000001	0.539640798892813\\
16.8359999999993	0.509965442316398\\
16.8459999999995	0.469216107489448\\
16.8559999999998	0.424531719368772\\
16.8670000000002	0.38022112486276\\
16.8819999999996	0.343433751462192\\
16.8870000000006	0.324851475776738\\
16.8960000000006	0.31929596869689\\
16.9079999999994	0.319444892397552\\
16.9169999999995	0.315560519022972\\
16.9320000000007	0.305745349415311\\
16.9369999999999	0.289567955340466\\
16.9480000000003	0.26405845644898\\
16.9570000000003	0.241141669485737\\
16.9670000000006	0.21718040026539\\
16.982	0.196607179089163\\
16.9869999999992	0.174141454839607\\
16.9959999999992	0.153662999366129\\
17.0059999999994	0.135686974181316\\
17.0169999999998	0.118486481078504\\
17.0319999999992	0.11039619880464\\
17.0349999999999	0.101132599779382\\
17.0470000000005	0.0965650736374393\\
17.0550000000003	0.0990264727400661\\
17.0669999999991	0.111730260752355\\
17.0830000000005	0.123623114840969\\
17.0859999999993	0.137766128190082\\
17.0959999999995	0.158333996975022\\
17.1059999999998	0.196068168473851\\
17.1149999999998	0.248539619802733\\
17.1309999999994	0.30429599644797\\
17.134	0.338870408662958\\
17.1460000000006	0.352288691190966\\
17.155999999999	0.352699792302631\\
17.1659999999993	0.361953312843262\\
17.1800000000003	0.392638194291562\\
17.1849999999995	0.445289903810896\\
17.1970000000001	0.516837177531337\\
17.2049999999999	0.619673046159607\\
17.2160000000003	0.748730626783238\\
17.232	0.868656611882181\\
17.2340000000004	0.95987645178134\\
17.2459999999992	1.01080256224289\\
17.2559999999994	1.03223793083055\\
17.2659999999996	1.0370710095722\\
17.2800000000007	1.03663847605309\\
17.2860000000001	1.056329837374\\
17.2950000000001	1.07578582292429\\
17.3099999999995	1.11295032158103\\
17.3150000000005	1.16009272781442\\
17.3310000000001	1.20825988577135\\
17.3340000000007	1.24586100161\\
17.3469999999998	1.27946719416772\\
17.3549999999996	1.30316796227036\\
17.366	1.31924878571329\\
17.3780000000006	1.33199828577168\\
17.3850000000002	1.3389261374413\\
17.3950000000004	1.33850097757663\\
17.405999999999	1.32978486875308\\
17.4149999999991	1.31849631534173\\
17.4300000000003	1.31282110535124\\
17.4339999999993	1.31411583957123\\
17.4449999999997	1.32102968523881\\
17.4549999999999	1.32608566858923\\
17.4650000000001	1.32281212731485\\
17.4799999999996	1.30953422276581\\
17.4850000000006	1.28419464727245\\
17.494999999999	1.23832373799032\\
17.5049999999992	1.1649834706354\\
17.5139999999992	1.079016277082\\
17.5290000000005	1.00103379619083\\
17.5339999999997	0.954633837429124\\
17.5439999999999	0.935944691154239\\
17.5529999999999	0.93165485673392\\
17.5640000000003	0.932020548399415\\
17.5779999999995	0.908925586100694\\
17.5840000000007	0.885378499108627\\
17.5939999999991	0.837808712810347\\
17.6039999999994	0.771217178117256\\
17.6139999999996	0.693819563976787\\
17.628999999999	0.624566125937355\\
17.6329999999998	0.552682155405889\\
17.6440000000002	0.492355400583692\\
17.6540000000005	0.445514466340354\\
17.6640000000007	0.402097743767478\\
17.6790000000001	0.371243237136247\\
17.6859999999997	0.354905750833295\\
17.6929999999993	0.354374085610227\\
17.7070000000003	0.352118276924038\\
17.7129999999997	0.341324165205134\\
17.7350000000006	0.322790837902724\\
17.7369999999992	0.293701764306175\\
17.7440000000006	0.259094061343998\\
17.7530000000006	0.229888784297628\\
17.8739999999998	0.208483969976281\\
17.8739999999998	0.200704604976621\\
17.8739999999998	0.197816083829929\\
17.8739999999998	0.196909054689555\\
17.8739999999998	0.193843842521489\\
17.8739999999998	0.183135511108029\\
17.875	0.159106891288042\\
17.875	0.135662910013971\\
17.875	0.131832323113677\\
17.875	0.130760861961612\\
17.875	0.130459666214796\\
17.875	0.133244995055666\\
17.8819999999996	0.133661216724002\\
17.8919999999998	0.133210336121783\\
17.902	0.130809106275978\\
17.9110000000001	0.127317852125674\\
17.9269999999997	0.126230370644715\\
17.9329999999991	0.12478494898893\\
17.9419999999991	0.123793022068812\\
17.9879999999994	0.127903117265854\\
17.9879999999994	0.131295760269686\\
17.9899999999998	0.134019498504893\\
17.9899999999998	0.134665650439946\\
17.9899999999998	0.135008286428657\\
18.0030000000006	0.135336076532317\\
18.0120000000006	0.134082037141452\\
18.0280000000002	0.132561536704103\\
18.0300000000007	0.132427168230598\\
18.0419999999995	0.140005432100279\\
18.0509999999995	0.148599873716459\\
18.0619999999999	0.153255389184592\\
18.0759999999991	0.154475475531717\\
18.0820000000003	0.155295774235515\\
18.0910000000003	0.156044646087533\\
18.1020000000008	0.156325893450089\\
18.1110000000008	0.154139782623097\\
18.1270000000004	0.151241208632772\\
18.1299999999992	0.149600216730355\\
18.1409999999996	0.15237217013158\\
18.152	0.156022879806222\\
18.1610000000001	0.160832310614874\\
18.1769999999997	0.169371679482753\\
18.1820000000007	0.171350638289321\\
18.1910000000007	0.171502219304184\\
18.2019999999993	0.171211449409493\\
18.2109999999993	0.171799425818346\\
18.2260000000006	0.173611940852643\\
18.2299999999996	0.179223993576627\\
18.2420000000002	0.184259230528481\\
18.25	0.195902483561854\\
18.2610000000004	0.208715053185074\\
18.2749999999996	0.213659424285248\\
18.280999999999	0.214868970772239\\
18.2899999999991	0.214856827230541\\
18.3009999999995	0.215191738139972\\
18.3099999999995	0.21453280400301\\
18.3259999999991	0.214582271257748\\
18.3299999999999	0.215788179083198\\
18.3400000000001	0.215037723771274\\
18.3500000000004	0.217419698674613\\
18.3600000000006	0.221920144733156\\
18.375	0.224897777848666\\
18.3799999999992	0.225205552282295\\
18.3899999999994	0.22466729516536\\
18.3999999999996	0.223492270965068\\
18.4099999999999	0.22188534023001\\
18.4249999999993	0.220016342367988\\
18.4290000000001	0.217193933339052\\
18.4400000000005	0.214432052597782\\
18.4490000000005	0.209632963296796\\
18.4599999999991	0.203975075561955\\
18.4760000000006	0.206470785974089\\
18.4779999999992	0.210173736983727\\
18.4889999999996	0.215849524519104\\
18.5	0.220563393236257\\
18.5110000000004	0.222886092586382\\
18.5249999999996	0.218757981368544\\
18.5280000000002	0.210611950161672\\
18.5390000000007	0.19506327920978\\
18.5489999999991	0.177169701197486\\
18.5609999999997	0.170386924995317\\
18.5740000000005	0.168465995142213\\
18.5799999999999	0.168964543356972\\
18.5869999999995	0.174150482231849\\
18.598	0.180308912164925\\
18.6080000000002	0.183588696864782\\
18.6239999999998	0.179168795609309\\
18.6280000000006	0.172805308425632\\
18.6389999999992	0.165711610648224\\
18.6479999999992	0.158916761590565\\
18.6589999999997	0.156130490033648\\
18.6739999999991	0.161269718150036\\
18.6790000000001	0.168414203336663\\
18.6880000000001	0.175380335080643\\
18.6990000000005	0.187717162883404\\
18.7080000000005	0.199007846847975\\
18.7240000000002	0.209889006455957\\
18.7270000000008	0.21528965102006\\
18.7379999999994	0.216489116338665\\
18.7479999999996	0.215249097372528\\
18.7579999999998	0.210738467212408\\
18.7729999999992	0.206838056500626\\
18.7780000000002	0.200737307140036\\
18.7880000000005	0.194731846080561\\
18.7980000000007	0.190363533654153\\
18.8070000000007	0.188075692346449\\
18.8240000000005	0.1890163750205\\
18.8269999999993	0.190266795048532\\
18.8379999999997	0.190920907908983\\
18.8500000000004	0.191527697446895\\
18.8580000000002	0.192262654034919\\
18.8709999999992	0.191485177545516\\
18.8770000000004	0.186348354897285\\
18.8899999999994	0.180390748587677\\
18.8960000000006	0.174696397027787\\
18.905999999999	0.171828055138418\\
19.0450000000001	0.172380556497077\\
19.0450000000001	0.172985173571149\\
19.0450000000001	0.173363561750634\\
19.0450000000001	0.171310979125579\\
19.0450000000001	0.165413407590117\\
19.0450000000001	0.156885179792314\\
19.0450000000001	0.148501930924466\\
19.0450000000001	0.131968972057566\\
19.0450000000001	0.112667773456664\\
19.0450000000001	0.0913805835562926\\
19.0450000000001	0.0777924051721765\\
19.0450000000001	0.0728569216214376\\
19.0450000000001	0.0724911029605203\\
19.0450000000001	0.0738705576250401\\
19.0570000000007	0.0745583158661193\\
19.0699999999997	0.0742017568945837\\
19.0869999999995	0.0713187268513452\\
19.0869999999995	0.0679861906002682\\
19.0949999999993	0.0674568458634941\\
19.1049999999996	0.0660365958289469\\
19.119999999999	0.0628207499140678\\
19.125	0.0610682115491935\\
19.1350000000002	0.0581543847325138\\
19.1450000000004	0.055697290002338\\
19.155999999999	0.0558137974507393\\
19.1710000000003	0.0556665720208186\\
19.1749999999993	0.0549090335174273\\
19.1869999999999	0.0533234333077471\\
19.1959999999999	0.0506876771120308\\
19.2049999999999	0.0486031364684279\\
19.2199999999993	0.0458140460985846\\
19.2240000000002	0.0430008986718419\\
19.2360000000008	0.0435437640098393\\
19.2459999999992	0.0446895383119779\\
19.2559999999994	0.0449006211666287\\
19.2700000000004	0.0444805851441836\\
19.2759999999998	0.0488268956833464\\
19.2849999999999	0.05362286374431\\
19.2950000000001	0.0555786599738109\\
19.3060000000005	0.0581637698926342\\
19.3209999999999	0.0605311849683058\\
19.3240000000005	0.0605157584253395\\
19.3359999999993	0.0595237209244327\\
19.3439999999991	0.0592797407675367\\
19.3559999999998	0.0595723987534786\\
19.3709999999992	0.059560410939914\\
19.3739999999998	0.0594770846987077\\
19.384	0.0562961365369237\\
19.3960000000006	0.0527525001080346\\
19.4050000000007	0.0518008099450203\\
19.4189999999999	0.0515693434079535\\
19.4239999999991	0.0549128623839822\\
19.4349999999995	0.056674084806574\\
19.4449999999997	0.0583921009536985\\
19.4560000000001	0.0582300565954162\\
19.4680000000008	0.0584751986406952\\
19.4760000000006	0.0585882244650333\\
19.4840000000004	0.0587147129163088\\
19.494999999999	0.0587268251467917\\
19.503999999999	0.0587221984428924\\
19.5210000000006	0.0583940898097943\\
19.521999999999	0.0579765323392327\\
19.5339999999997	0.0567106869965581\\
19.5450000000001	0.05652541897973\\
19.5540000000001	0.0577007255286569\\
19.5679999999993	0.0542890901522981\\
19.5740000000005	0.0494597798409476\\
19.5840000000007	0.045957374205589\\
19.5939999999991	0.0426645968437326\\
19.6039999999994	0.0391160356813808\\
19.6190000000006	0.0391723394425734\\
19.6219999999994	0.0380991797984374\\
19.634	0.036849548395881\\
19.6440000000002	0.0370508586481966\\
19.6540000000005	0.0370764251262685\\
19.6669999999995	0.0372604267985888\\
19.6739999999991	0.0379545434422165\\
19.6829999999991	0.0434634638631688\\
19.6939999999995	0.0468687436014908\\
19.7049999999999	0.0498402072266829\\
19.7180000000008	0.0480267740996945\\
19.7219999999998	0.0458389210238809\\
19.7330000000002	0.0433245555295251\\
19.7430000000004	0.0434634479461343\\
19.7530000000006	0.0432193501282271\\
19.7669999999998	0.0439796272646902\\
19.7729999999992	0.0484820109787986\\
19.7829999999994	0.0525934633360062\\
19.7929999999997	0.0553675111394114\\
19.8019999999997	0.0553918593713233\\
19.8169999999991	0.0555641753374772\\
19.8220000000001	0.0575911304700087\\
19.8330000000005	0.0583578604302888\\
19.8420000000006	0.05705877168204\\
19.8529999999992	0.0566750328997403\\
19.8680000000004	0.0570668036601818\\
19.8729999999996	0.0573083672651007\\
19.8819999999996	0.0572452353069609\\
19.893	0.0572419856152083\\
19.9030000000002	0.0574584838558669\\
19.9159999999993	0.0574590042562547\\
19.9210000000003	0.0585329085158457\\
19.9320000000007	0\\
19.9449999999997	0\\
19.9519999999993	0\\
19.9680000000008	0\\
19.9709999999995	0\\
19.9840000000004	0\\
19.994999999999	0\\
20.0059999999994	0\\
20.1219999999994	0\\
20.1219999999994	0\\
20.1219999999994	0\\
20.1229999999996	0\\
20.1229999999996	0\\
20.1229999999996	0\\
20.1229999999996	0\\
20.1229999999996	0\\
20.1229999999996	0\\
20.1229999999996	0\\
20.1229999999996	0\\
20.1229999999996	0\\
20.1319999999996	0\\
20.1419999999998	0\\
20.1509999999998	0\\
20.1649999999991	0\\
20.1720000000005	0\\
20.1820000000007	0\\
20.1900000000005	0\\
20.2000000000007	0\\
};
\end{axis}
\end{tikzpicture}