% This file was created by matlab2tikz.
%
%The latest updates can be retrieved from
%  http://www.mathworks.com/matlabcentral/fileexchange/22022-matlab2tikz-matlab2tikz
%where you can also make suggestions and rate matlab2tikz.
%
\definecolor{mycolor1}{rgb}{0.00000,1.00000,1.00000}%
%
\begin{tikzpicture}

\begin{axis}[%
width=3.235in,
height=3.235in,
at={(1.257in,3.628in)},
scale only axis,
bar shift auto,
log origin=infty,
xmin=0,
xmax=5,
xtick={1,2,3,4},
xticklabels={{kNN},{SVM},{NB},{NONE}},
xlabel style={font=\color{white!15!black}},
xlabel={Area estimation method},
ymin=1.5,
ymax=5,
ylabel style={font=\color{white!15!black}},
ylabel={Mean error in m},
axis background/.style={fill=white},
title style={font=\bfseries},
title={Static},
legend style={at={(0.97,0.03)}, anchor=south east, legend cell align=left, align=left, draw=white!15!black}
]
\addplot[ybar, bar width=0.145, fill=blue, draw=black, area legend] table[row sep=crcr] {%
1	3.25923708537197\\
2	3.16340495547003\\
3	3.06666662807921\\
4	3.13527704956702\\
};
\addlegendentry{wkNN}

\addplot[ybar, bar width=0.145, fill=green, draw=black, area legend] table[row sep=crcr] {%
1	3.11567298400811\\
2	3.00901685643255\\
3	2.92112479919557\\
4	3.76022700643308\\
};
\addlegendentry{$\epsilon\text{-SVM}$}

\addplot[ybar, bar width=0.145, fill=red, draw=black, area legend] table[row sep=crcr] {%
1	3.15144938090236\\
2	3.01001559703221\\
3	2.97822095459464\\
4	3.44430130713748\\
};
\addlegendentry{NB}

\addplot[ybar, bar width=0.145, fill=mycolor1, draw=black, area legend] table[row sep=crcr] {%
1	3.89559355182887\\
2	3.86351559384475\\
3	3.78349736533901\\
4	0\\
};
\addlegendentry{Center}

\end{axis}

\begin{axis}[%
width=3.235in,
height=3.235in,
at={(5.513in,3.628in)},
scale only axis,
bar shift auto,
log origin=infty,
xmin=0,
xmax=5,
xtick={1,2,3,4},
xticklabels={{kNN},{SVM},{NB},{NONE}},
xlabel style={font=\color{white!15!black}},
xlabel={Area estimation method},
ymin=1.5,
ymax=5,
ylabel style={font=\color{white!15!black}},
ylabel={Mean error in m},
axis background/.style={fill=white},
title style={font=\bfseries},
title={In-walk},
legend style={at={(0.97,0.03)}, anchor=south east, legend cell align=left, align=left, draw=white!15!black}
]
\addplot[ybar, bar width=0.178, fill=blue, draw=black, area legend] table[row sep=crcr] {%
1	2.47773548519083\\
2	2.47773548519083\\
3	2.91568889472306\\
4	2.48483658918359\\
};
\addlegendentry{wkNN}

\addplot[ybar, bar width=0.178, fill=green, draw=black, area legend] table[row sep=crcr] {%
1	2.61577202332805\\
2	2.61577202332805\\
3	2.74074510266098\\
4	3.04748092441638\\
};
\addlegendentry{$\epsilon\text{-SVM}$}

\addplot[ybar, bar width=0.178, fill=mycolor1, draw=black, area legend] table[row sep=crcr] {%
1	3.70047637333246\\
2	3.70047637333246\\
3	4.10927142791657\\
4	0\\
};
\addlegendentry{Center}

\end{axis}
\end{tikzpicture}%